<svg width="174" height="174" viewBox="0 0 174 174" fill="none" xmlns="http://www.w3.org/2000/svg">
<circle cx="86.6719" cy="86.6719" r="86.6719" fill="#13141F"/>
<path d="M54.2 54H119.8C124.31 54 128 57.69 128 62.2V111.4C128 115.91 124.31 119.6 119.8 119.6H54.2C49.69 119.6 46 115.91 46 111.4V62.2C46 57.69 49.69 54 54.2 54Z" stroke="#F9A307" stroke-width="4" stroke-linecap="round" stroke-linejoin="round"/>
<path d="M128 62.2002L87 90.9002L46 62.2002" stroke="#F9A307" stroke-width="4" stroke-linecap="round" stroke-linejoin="round"/>
</svg>
